^D:\MARIA\UE4\HW12_1\HW12_1\HW12_1\PCH.CPP
D:\MARIA\UE4\HW12_1\HW12_1\HW12_1\DEBUG\HW12_1.PCH
D:\MARIA\UE4\HW12_1\HW12_1\HW12_1\DEBUG\VC141.PDB
D:\MARIA\UE4\HW12_1\HW12_1\HW12_1\DEBUG\VC141.IDB
D:\MARIA\UE4\HW12_1\HW12_1\HW12_1\DEBUG\PCH.OBJ
^D:\MARIA\UE4\HW12_1\HW12_1\HW12_1\HW12_1.CPP
D:\MARIA\UE4\HW12_1\HW12_1\HW12_1\DEBUG\VC141.PDB
D:\MARIA\UE4\HW12_1\HW12_1\HW12_1\DEBUG\VC141.IDB
D:\MARIA\UE4\HW12_1\HW12_1\HW12_1\DEBUG\HW12_1.OBJ
